# Blender MTL File: 'dragon.blend'
# Material Count: 3

newmtl Material
Ns 96.078431
Ka 0.000000 0.000000 0.000000
Kd 0.800000 0.800000 0.800000
Ks 0.500000 0.500000 0.500000
Ni 1.000000
d 1.000000
illum 2

newmtl dragon
Ns 1000.078431
Ka 0.000000 0.000000 0.000000
Kd 0.640000 0.418532 0.000000
Ks 0.500000 0.500000 0.500000
Ni 10.000000
d 1.000000
illum 2

newmtl light
Ns 96.078431
Ka 0.000000 0.000000 0.000000
Kd 0.640000 0.640000 0.640000
Ks 0.500000 0.500000 0.500000
Ke 500 100 100 
Ni 1.000000
d 1.000000
illum 2
