# Blender MTL File: 'light_and_plane.blend'
# Material Count: 2

newmtl floor
Ns 96.078431
Ka 0.000000 0.000000 0.000000
Kd 0.800000 0.789276 0.789276
Ks 0.477544 0.477544 0.477544
Ni 1.000000
d 1.000000
illum 2

newmtl light
Ns 96.078431
Ka 0.000000 0.000000 0.000000
Kd 0.640000 0.640000 0.640000
Ks 0.500000 0.500000 0.500000
Ni 1.000000
d 1.000000
illum 2
